{
  "GetdeptInfo" : {
    "name" : "GetdeptInfo",
    "description" : "d",
    "version" : "V2",
    "procedureString" : "Exec HumanResources.getDeparmentInfoOut :deptid,:Name",
    "parameters" : [ {
      "name" : "deptid",
      "type" : "integer",
      "list" : false,
      "variableType" : "PROMPT",
      "testValue" : "2",
      "required" : true,
      "parameterType" : "IN"
    }, {
      "name" : "Name",
      "type" : "string",
      "list" : false,
      "variableType" : "PROMPT",
      "testValue" : "",
      "required" : true,
      "parameterType" : "OUT"
    } ],
    "request" : {
      "wrapped" : false,
      "typeRef" : null,
      "method" : "GET"
    },
    "response" : {
      "typeRef" : "com.testallservicesforvcs.adventureworks2014.models.procedure.GetdeptInfoResponse",
      "returns" : "CUSTOM",
      "responseType" : "SINGLE",
      "properties" : [ {
        "name" : "Name",
        "fieldName" : "name",
        "optional" : false,
        "fieldType" : {
          "type" : "PRIMITIVE",
          "typeRef" : "java.lang.String",
          "list" : false
        }
      } ]
    }
  }
}